423	Diseño y comunicación visual
118	Ingeniería química
205	Ingeniería en alimentos
211	Química
213	Química farmacéutico biológica
214	Química industrial
218	Bioquímica diagnostica
219	Farmacia
301	Administración
304	Contaduría
308	Informática 
114	Ingeniería industrial
116	Ingeniería mecánica eléctrica
130	Ingeniería en telecomunicaciones, sistemas y electrónica
207	Medicina veterinaria y zootecnia
204	Ingeniería agrícola
126	Tecnología
